Linkage Maps Raw
================

### Format output for Marey maps

Read and tidy data
<details>
<summary>
Show code
</summary>
<p>

    ## # A tibble: 24 × 3
    ##    lgchr length markers
    ##    <dbl>  <dbl>   <int>
    ##  1     1   174.     925
    ##  2     2   162.     754
    ##  3     3   115.     996
    ##  4     4   177.     936
    ##  5     5   144.     859
    ##  6     6   151.     876
    ##  7     7   169.     835
    ##  8     8   153.     799
    ##  9     9   166.    1023
    ## 10    10   151.     984
    ## # … with 14 more rows
…
